{
  "7adc6cdde1172c646f8dda7fcb1186d148e59e6d2a40774bd7e03281a653f19c": true,
  "796951473c719ad8e46b7b70380efd80d26df0c11d3469d6212a56e8ef71cc18": true,
  "dd783a7cbdbb29800782f11af86c80df4961140b1a280481f64df031e2ea0ff9": true,
  "89ed26367cdb9b771858e026f2eb95bfdb90e5ae943e716575327ec325f39c44": true,
  "443da53fb3706394aefc682be02ee8c99e0185d857a7896b8ba95999f3eca412": true,
  "d0249b8a8408e34c0931c7285e7fbc70dd4e2ec9f1c081c8c9ce885510df3461": true
}